#define desk_toggled_width 9
#define desk_toggled_height 9
static char desk_toggled_bits[] = {
  0xFF, 0x01, 0xFF, 0x01, 0xFF, 0x01, 0xFF, 0x01, 0xEF, 0x01, 0xFF, 0x01, 
  0xFF, 0x01, 0xFF, 0x01, 0xFF, 0x01, };
