#define desk_hover_width 10
#define desk_hover_height 10
static char desk_hover_bits[] = {
  0x00, 0x00, 0x00, 0x00, 0x0C, 0x00, 0x4C, 0x00, 0x00, 0x00, 0x00, 0x00, 
  0xC8, 0x00, 0xC0, 0x00, 0x00, 0x00, 0x00, 0x00, };
